<?xml version="1.0" encoding="UTF-8" standalone="no"?>
<svg viewBox="0 0 50 50"
 xmlns="http://www.w3.org/2000/svg" xmlns:xlink="http://www.w3.org/1999/xlink"  version="1.2" baseProfile="tiny">
<title>Qt SVG Document</title>
<desc>Generated with Qt</desc>
<defs>
</defs>
<g fill="none" stroke="black" stroke-width="1" fill-rule="evenodd" stroke-linecap="square" stroke-linejoin="bevel" >

<g fill="#ffffff" fill-opacity="1" stroke="none" transform="matrix(2.27273,0,0,2.27273,-193.434,3.35199)"
font-family="Noto Sans" font-size="10" font-weight="400" font-style="normal" 
opacity="0" >
<rect x="85.1109" y="-1.47487" width="22" height="22"/>
</g>

<g fill="#d35f5f" fill-opacity="1" stroke="none" transform="matrix(2.27273,0,0,2.27273,-69.3182,-60.2273)"
font-family="Noto Sans" font-size="10" font-weight="400" font-style="normal" 
opacity="0.9" >
<circle cx="41.5" cy="37.5" r="7.5"/>
</g>

<g fill="#ffffff" fill-opacity="1" stroke="none" transform="matrix(1.60706,-1.60706,1.60706,1.60706,-102.322,30.1853)"
font-family="Noto Sans" font-size="10" font-weight="400" font-style="normal" 
>
<path vector-effect="none" fill-rule="evenodd" d="M40.2266,34.49 C40.2266,33.9432 40.6743,33.5 41.2266,33.5 C41.7789,33.5 42.2266,33.9432 42.2266,34.49 L42.2266,41.51 C42.2266,42.0568 41.7789,42.5 41.2266,42.5 C40.6743,42.5 40.2266,42.0568 40.2266,41.51 L40.2266,34.49"/>
</g>

<g fill="#ffffff" fill-opacity="1" stroke="none" transform="matrix(1.60706,1.60706,-1.60706,1.60706,-102.322,30.1853)"
font-family="Noto Sans" font-size="10" font-weight="400" font-style="normal" 
>
<path vector-effect="none" fill-rule="evenodd" d="M37,-44.7366 C37,-45.2834 37.4477,-45.7266 38,-45.7266 C38.5523,-45.7266 39,-45.2834 39,-44.7366 L39,-37.7166 C39,-37.1698 38.5523,-36.7266 38,-36.7266 C37.4477,-36.7266 37,-37.1698 37,-37.7166 L37,-44.7366"/>
</g>

<g fill="none" stroke="#000000" stroke-opacity="1" stroke-width="1" stroke-linecap="square" stroke-linejoin="bevel" transform="matrix(1,0,0,1,0,0)"
font-family="Noto Sans" font-size="10" font-weight="400" font-style="normal" 
>
</g>
</g>
</svg>
